{
  "rules": {
    "users": {
      "$user": {
        ".read": "$user === auth.uid || root.child('users').child(auth.uid).child('admin').val() === true",
        ".write": "$user === auth.uid",
        "displayName": {
          ".validate": "newData.isString()"
        },
        "email": {
          ".validate": "newData.isString()"
        },
        "loan_amnt": {
          ".validate": "newData.isNumber()"
        },
        "grade": {
          ".validate": "newData.isString()"
        },
        "sub_grade": {
          ".validate": "newData.isString()"
        },
        "emp_title": {
          ".validate": "newData.isString()"
        },
        "emp_length": {
          ".validate": "newData.isNumber()"
        },
        "home_ownership": {
          ".validate": "newData.isString()"
        },
        "annual_inc": {
          ".validate": "newData.isNumber()"
        },
        "purpose": {
          ".validate": "newData.isString()"
        },
        "title": {
          ".validate": "newData.isString()"
        },
        "zip_code": {
          ".validate": "newData.isString()"
        },
        "addr_state": {
          ".validate": "newData.isString()"
        },
        "dti": {
          ".validate": "newData.isNumber()"
        },
        "delinq_2yrs": {
          ".validate": "newData.isNumber()"
        },
        "earliest_cr_line": {
          ".validate": "newData.isString()"
        },
        "inq_last_6mths": {
          ".validate": "newData.isNumber()"
        },
        "mths_since_last_delinq": {
          ".validate": "newData.isNumber()"
        },
        "mths_since_last_record": {
          ".validate": "newData.isNumber()"
        },
        "open_acc": {
          ".validate": "newData.isNumber()"
        },
        "pub_rec": {
          ".validate": "newData.isNumber()"
        },
        "revol_bal": {
          ".validate": "newData.isNumber()"
        },
        "revol_util": {
          ".validate": "newData.isNumber()"
        },
        "total_acc": {
          ".validate": "newData.isNumber()"
        },
        "initial_list_status": {
          ".validate": "newData.isString()"
        },
        "collections_12_mths_ex_med": {
          ".validate": "newData.isNumber()"
        },
        "mths_since_last_major_derog": {
          ".validate": "newData.isNumber()"
        },
        "application_type": {
          ".validate": "newData.isString()"
        },
        "acc_now_delinq": {
          ".validate": "newData.isNumber()"
        },
        "tot_coll_amt": {
          ".validate": "newData.isNumber()"
        },
        "tot_cur_bal": {
          ".validate": "newData.isNumber()"
        },
        "admin": {
          ".validate": "newData.isBoolean()"
        }
      }
    },
    "samples": {
      ".read": "auth != null",
      ".write": false,
      "$sample": {
        "loan_amnt": {
          ".validate": "newData.isNumber()"
        },
        "grade": {
          ".validate": "newData.isString()"
        },
        "sub_grade": {
          ".validate": "newData.isString()"
        },
        "emp_title": {
          ".validate": "newData.isString()"
        },
        "emp_length": {
          ".validate": "newData.isNumber()"
        },
        "home_ownership": {
          ".validate": "newData.isString()"
        },
        "annual_inc": {
          ".validate": "newData.isNumber()"
        },
        "purpose": {
          ".validate": "newData.isString()"
        },
        "title": {
          ".validate": "newData.isString()"
        },
        "zip_code": {
          ".validate": "newData.isString()"
        },
        "addr_state": {
          ".validate": "newData.isString()"
        },
        "dti": {
          ".validate": "newData.isNumber()"
        },
        "delinq_2yrs": {
          ".validate": "newData.isNumber()"
        },
        "earliest_cr_line": {
          ".validate": "newData.isString()"
        },
        "inq_last_6mths": {
          ".validate": "newData.isNumber()"
        },
        "mths_since_last_delinq": {
          ".validate": "newData.isNumber()"
        },
        "mths_since_last_record": {
          ".validate": "newData.isNumber()"
        },
        "open_acc": {
          ".validate": "newData.isNumber()"
        },
        "pub_rec": {
          ".validate": "newData.isNumber()"
        },
        "revol_bal": {
          ".validate": "newData.isNumber()"
        },
        "revol_util": {
          ".validate": "newData.isNumber()"
        },
        "total_acc": {
          ".validate": "newData.isNumber()"
        },
        "initial_list_status": {
          ".validate": "newData.isString()"
        },
        "collections_12_mths_ex_med": {
          ".validate": "newData.isNumber()"
        },
        "mths_since_last_major_derog": {
          ".validate": "newData.isNumber()"
        },
        "application_type": {
          ".validate": "newData.isString()"
        },
        "acc_now_delinq": {
          ".validate": "newData.isNumber()"
        },
        "tot_coll_amt": {
          ".validate": "newData.isNumber()"
        },
        "tot_cur_bal": {
          ".validate": "newData.isNumber()"
        }
      }
    },
    "admins": {
      ".read": "auth != null",
      ".write": false,
      "$admin": {
        ".validate": "newData.isString()"
      }
    }
  }
}
